/Users/apple/Documents/IdeaProjects/concurrent/javabase/src/main/java/com/sk/io/netty/timeserver/TimeEncoderPOJO.java
/Users/apple/Documents/IdeaProjects/concurrent/javabase/src/main/java/com/sk/concurrent/executor/executorBySelf/UseThreadPoolExecutor2.java
/Users/apple/Documents/IdeaProjects/concurrent/javabase/src/main/java/com/sk/concurrent/future/FutureCook.java
/Users/apple/Documents/IdeaProjects/concurrent/javabase/src/main/java/com/sk/disruptor/bhz/base/LongEventProducer.java
/Users/apple/Documents/IdeaProjects/concurrent/javabase/src/main/java/com/sk/concurrent/multi01/SyncDubbo1.java
/Users/apple/Documents/IdeaProjects/concurrent/javabase/src/main/java/com/sk/jvm/HeapDump.java
/Users/apple/Documents/IdeaProjects/concurrent/javabase/src/main/java/com/sk/concurrent/lock/UseReentrantLock.java
/Users/apple/Documents/IdeaProjects/concurrent/javabase/src/main/java/com/sk/concurrent/executor/executorBySelf/UseThreadPoolExecutor1.java
/Users/apple/Documents/IdeaProjects/concurrent/javabase/src/main/java/com/sk/disruptor/bhz/base/LongEventFactory.java
/Users/apple/Documents/IdeaProjects/concurrent/javabase/src/main/java/com/sk/io/netty/timeserver/TimeServer.java
/Users/apple/Documents/IdeaProjects/concurrent/javabase/src/main/java/com/sk/concurrent/multi01/MyThread001.java
/Users/apple/Documents/IdeaProjects/concurrent/javabase/src/main/java/com/sk/basic/lamdaUnit/Apple.java
/Users/apple/Documents/IdeaProjects/concurrent/javabase/src/main/java/com/sk/concurrent/master_worker/Master.java
/Users/apple/Documents/IdeaProjects/concurrent/javabase/src/main/java/com/sk/concurrent/util_class/UseSemaphore.java
/Users/apple/Documents/IdeaProjects/concurrent/javabase/src/main/java/com/sk/concurrent/future/CommonCook.java
/Users/apple/Documents/IdeaProjects/concurrent/javabase/src/main/java/com/sk/crawler/XXLcrawler.java
/Users/apple/Documents/IdeaProjects/concurrent/javabase/src/main/java/com/sk/io/reactor/Event.java
/Users/apple/Documents/IdeaProjects/concurrent/javabase/src/main/java/com/sk/concurrent/singleton/DubbleSingletonRightCase.java
/Users/apple/Documents/IdeaProjects/concurrent/javabase/src/main/java/com/sk/concurrent/util_class/UseCyclicBarrier.java
/Users/apple/Documents/IdeaProjects/concurrent/javabase/src/main/java/com/sk/io/netty/timeserver/TimeDecoderPOJO.java
/Users/apple/Documents/IdeaProjects/concurrent/javabase/src/main/java/com/sk/io/netty/timeserver/Time.java
/Users/apple/Documents/IdeaProjects/concurrent/javabase/src/main/java/com/sk/basic/lamdaUnit/Dish.java
/Users/apple/Documents/IdeaProjects/concurrent/javabase/src/main/java/com/sk/basic/aboutstatic/testConstruct.java
/Users/apple/Documents/IdeaProjects/concurrent/javabase/src/main/java/com/sk/disruptor/bhz/generate1/Main1.java
/Users/apple/Documents/IdeaProjects/concurrent/javabase/src/main/java/com/sk/io/aio/AIOService.java
/Users/apple/Documents/IdeaProjects/concurrent/javabase/src/main/java/com/sk/io/reactor/Acceptor.java
/Users/apple/Documents/IdeaProjects/concurrent/javabase/src/main/java/com/sk/concurrent/multi01/SyncException.java
/Users/apple/Documents/IdeaProjects/concurrent/javabase/src/main/java/com/sk/concurrent/lock/UseReentrantReadWriteLock.java
/Users/apple/Documents/IdeaProjects/concurrent/javabase/src/main/java/com/sk/concurrent/multi02/threadlocal/ConnThreadLocal.java
/Users/apple/Documents/IdeaProjects/concurrent/javabase/src/main/java/com/sk/concurrent/multi01/ObjectLock002.java
/Users/apple/Documents/IdeaProjects/concurrent/javabase/src/main/java/com/sk/lintcode/Reverse.java
/Users/apple/Documents/IdeaProjects/concurrent/javabase/src/main/java/com/sk/disruptor/bhz/generate2/Handler1.java
/Users/apple/Documents/IdeaProjects/concurrent/javabase/src/main/java/com/sk/lintcode/sort/LinkListInsertSort.java
/Users/apple/Documents/IdeaProjects/concurrent/javabase/src/main/java/com/sk/disruptor/aswill/DisruptorOne2ManyWithSche.java
/Users/apple/Documents/IdeaProjects/concurrent/javabase/src/main/java/com/sk/basic/lamdaUnit/LamdaUnit02.java
/Users/apple/Documents/IdeaProjects/concurrent/javabase/src/main/java/com/sk/lintcode/Solu3.java
/Users/apple/Documents/IdeaProjects/concurrent/javabase/src/main/java/com/sk/lintcode/str/Split.java
/Users/apple/Documents/IdeaProjects/concurrent/javabase/src/main/java/com/sk/concurrent/executor/executorBySelf/MyTask.java
/Users/apple/Documents/IdeaProjects/concurrent/javabase/src/main/java/com/sk/basic/lamdaUnit/LamdaUnit.java
/Users/apple/Documents/IdeaProjects/concurrent/javabase/src/main/java/com/sk/lintcode/sort/Solu6.java
/Users/apple/Documents/IdeaProjects/concurrent/javabase/src/main/java/com/sk/Demo.java
/Users/apple/Documents/IdeaProjects/concurrent/javabase/src/main/java/com/sk/io/netty/quickstart/HelloServerHandler.java
/Users/apple/Documents/IdeaProjects/concurrent/javabase/src/main/java/com/sk/basic/lamdaUnit/LamdaUnit01.java
/Users/apple/Documents/IdeaProjects/concurrent/javabase/src/main/java/com/sk/concurrent/future/connection/FutureConnectionPool.java
/Users/apple/Documents/IdeaProjects/concurrent/javabase/src/main/java/com/sk/disruptor/bhz/base/LongEventHandler.java
/Users/apple/Documents/IdeaProjects/concurrent/javabase/src/main/java/com/sk/disruptor/aswill/LongEventMain.java
/Users/apple/Documents/IdeaProjects/concurrent/javabase/src/main/java/com/sk/jvm/HeapGCParam01.java
/Users/apple/Documents/IdeaProjects/concurrent/javabase/src/main/java/com/sk/io/aio/demo/AIOService.java
/Users/apple/Documents/IdeaProjects/concurrent/javabase/src/main/java/com/sk/concurrent/multi02/queue/MyQueue.java
/Users/apple/Documents/IdeaProjects/concurrent/javabase/src/main/java/com/sk/concurrent/util_class/TestBarrier.java
/Users/apple/Documents/IdeaProjects/concurrent/javabase/src/main/java/com/sk/concurrent/lock/uselock/SellTicketV2.java
/Users/apple/Documents/IdeaProjects/concurrent/javabase/src/main/java/com/sk/basic/aboutstatic/AboutInteger.java
/Users/apple/Documents/IdeaProjects/concurrent/javabase/src/main/java/com/sk/disruptor/bhz/generate2/Handler5.java
/Users/apple/Documents/IdeaProjects/concurrent/javabase/src/main/java/com/sk/io/bio2/HandlerExecutorPool.java
/Users/apple/Documents/IdeaProjects/concurrent/javabase/src/main/java/com/sk/concurrent/multi02/queue/MyQueneDemo.java
/Users/apple/Documents/IdeaProjects/concurrent/javabase/src/main/java/com/sk/concurrent/blockingqueue/BlockingQueueTest.java
/Users/apple/Documents/IdeaProjects/concurrent/javabase/src/main/java/com/sk/lintcode/array/JiaoJiSolu9.java
/Users/apple/Documents/IdeaProjects/concurrent/javabase/src/main/java/com/sk/disruptor/bhz/generate2/Handler2.java
/Users/apple/Documents/IdeaProjects/concurrent/javabase/src/main/java/com/sk/concurrent/multi01/MyObject.java
/Users/apple/Documents/IdeaProjects/concurrent/javabase/src/main/java/com/sk/concurrent/multi02/wait_notify/ListAdd1.java
/Users/apple/Documents/IdeaProjects/concurrent/javabase/src/main/java/com/sk/lintcode/seachData.java
/Users/apple/Documents/IdeaProjects/concurrent/javabase/src/main/java/com/sk/io/reactor/InputSource.java
/Users/apple/Documents/IdeaProjects/concurrent/javabase/src/main/java/com/sk/concurrent/lock/UseCondition.java
/Users/apple/Documents/IdeaProjects/concurrent/javabase/src/main/java/com/sk/disruptor/bhz/multi/Main.java
/Users/apple/Documents/IdeaProjects/concurrent/javabase/src/main/java/com/sk/concurrent/blockingqueue/BlockingQueueFrameworkTest.java
/Users/apple/Documents/IdeaProjects/concurrent/javabase/src/main/java/com/sk/io/bio/Server.java
/Users/apple/Documents/IdeaProjects/concurrent/javabase/src/main/java/com/sk/disruptor/aswill/LongEvent.java
/Users/apple/Documents/IdeaProjects/concurrent/javabase/src/main/java/com/sk/disruptor/aswill/SingleProductorLongEventMain.java
/Users/apple/Documents/IdeaProjects/concurrent/javabase/src/main/java/com/sk/io/reactor/Selector.java
/Users/apple/Documents/IdeaProjects/concurrent/javabase/src/main/java/com/sk/disruptor/bhz/base/LongEventProducerWithTranslator.java
/Users/apple/Documents/IdeaProjects/concurrent/javabase/src/main/java/com/sk/io/netty/timeserver/TimeClientHandler.java
/Users/apple/Documents/IdeaProjects/concurrent/javabase/src/main/java/com/sk/concurrent/master_worker/Worker.java
/Users/apple/Documents/IdeaProjects/concurrent/javabase/src/main/java/com/sk/concurrent/executor/executorBySelf/MyRejected.java
/Users/apple/Documents/IdeaProjects/concurrent/javabase/src/main/java/com/sk/disruptor/aswill/DisruptorWizardOne2Many.java
/Users/apple/Documents/IdeaProjects/concurrent/javabase/src/main/java/com/sk/io/BioReadFile.java
/Users/apple/Documents/IdeaProjects/concurrent/javabase/src/main/java/com/sk/io/reactor/EventHandler.java
/Users/apple/Documents/IdeaProjects/concurrent/javabase/src/main/java/com/sk/io/netty/quickstart/HelloServer.java
/Users/apple/Documents/IdeaProjects/concurrent/javabase/src/main/java/com/sk/lintcode/printErWeiArray.java
/Users/apple/Documents/IdeaProjects/concurrent/javabase/src/main/java/com/sk/jvm/HeapStackParams.java
/Users/apple/Documents/IdeaProjects/concurrent/javabase/src/main/java/com/sk/TestCase.java
/Users/apple/Documents/IdeaProjects/concurrent/javabase/src/main/java/com/sk/concurrent/multi01/RunThread003.java
/Users/apple/Documents/IdeaProjects/concurrent/javabase/src/main/java/com/sk/lintcode/array/Solu7.java
/Users/apple/Documents/IdeaProjects/concurrent/javabase/src/main/java/com/sk/concurrent/lock/MyReadWriteLock.java
/Users/apple/Documents/IdeaProjects/concurrent/javabase/src/main/java/com/sk/disruptor/bhz/base/LongEvent.java
/Users/apple/Documents/IdeaProjects/concurrent/javabase/src/main/java/com/sk/concurrent/util_class/UseCountDownLatch.java
/Users/apple/Documents/IdeaProjects/concurrent/javabase/src/main/java/com/sk/disruptor/bhz/generate1/Trade.java
/Users/apple/Documents/IdeaProjects/concurrent/javabase/src/main/java/com/sk/basic/aboutstatic/TestStatic.java
/Users/apple/Documents/IdeaProjects/concurrent/javabase/src/main/java/com/sk/concurrent/multi01/DirtyRead.java
/Users/apple/Documents/IdeaProjects/concurrent/javabase/src/main/java/com/sk/io/NioBufferRead.java
/Users/apple/Documents/IdeaProjects/concurrent/javabase/src/main/java/com/sk/io/reactor/Server.java
/Users/apple/Documents/IdeaProjects/concurrent/javabase/src/main/java/com/sk/concurrent/executor/ScheduledJob.java
/Users/apple/Documents/IdeaProjects/concurrent/javabase/src/main/java/com/sk/disruptor/bhz/multi/Order.java
/Users/apple/Documents/IdeaProjects/concurrent/javabase/src/main/java/com/sk/io/reactor/Dispatcher.java
/Users/apple/Documents/IdeaProjects/concurrent/javabase/src/main/java/com/sk/concurrent/master_worker/PlusWorker.java
/Users/apple/Documents/IdeaProjects/concurrent/javabase/src/main/java/com/sk/concurrent/lock/UseManyCondition.java
/Users/apple/Documents/IdeaProjects/concurrent/javabase/src/main/java/com/sk/concurrent/multi01/MultiThread.java
/Users/apple/Documents/IdeaProjects/concurrent/javabase/src/main/java/com/sk/concurrent/util_class/UseFuture.java
/Users/apple/Documents/IdeaProjects/concurrent/javabase/src/main/java/com/sk/lintcode/array/Solu8.java
/Users/apple/Documents/IdeaProjects/concurrent/javabase/src/main/java/com/sk/io/reactor/EventType.java
/Users/apple/Documents/IdeaProjects/concurrent/javabase/src/main/java/com/sk/jvm/HeapTenuredParams.java
/Users/apple/Documents/IdeaProjects/concurrent/javabase/src/main/java/com/sk/io/nio/Server.java
/Users/apple/Documents/IdeaProjects/concurrent/javabase/src/main/java/com/sk/io/netty/timeserver/TimeClient.java
/Users/apple/Documents/IdeaProjects/concurrent/javabase/src/main/java/com/sk/basic/aboutstatic/TestYinYong.java
/Users/apple/Documents/IdeaProjects/concurrent/javabase/src/main/java/com/sk/disruptor/aswill/MultiProductorLongEventMain.java
/Users/apple/Documents/IdeaProjects/concurrent/javabase/src/main/java/com/sk/io/netty/timeserver/TimeServerHandlerPOJO.java
/Users/apple/Documents/IdeaProjects/concurrent/javabase/src/main/java/com/sk/disruptor/aswill/LongEventProducer.java
/Users/apple/Documents/IdeaProjects/concurrent/javabase/src/main/java/com/sk/io/bio2/Client.java
/Users/apple/Documents/IdeaProjects/concurrent/javabase/src/main/java/com/sk/concurrent/multi01/StringLock004.java
/Users/apple/Documents/IdeaProjects/concurrent/javabase/src/main/java/com/sk/concurrent/multi01/ChangeLock.java
/Users/apple/Documents/IdeaProjects/concurrent/javabase/src/main/java/com/sk/concurrent/multi01/AtomicUse.java
/Users/apple/Documents/IdeaProjects/concurrent/javabase/src/main/java/com/sk/concurrent/singleton/InnerSingleton.java
/Users/apple/Documents/IdeaProjects/concurrent/javabase/src/main/java/com/sk/concurrent/singleton/DubbleSingleton.java
/Users/apple/Documents/IdeaProjects/concurrent/javabase/src/main/java/com/sk/disruptor/bhz/generate1/TradeHandler.java
/Users/apple/Documents/IdeaProjects/concurrent/javabase/src/main/java/com/sk/concurrent/lock/TestWaitNotify.java
/Users/apple/Documents/IdeaProjects/concurrent/javabase/src/main/java/com/sk/io/nio/test/TestBuffer.java
/Users/apple/Documents/IdeaProjects/concurrent/javabase/src/main/java/com/sk/concurrent/multi01/Optimize.java
/Users/apple/Documents/IdeaProjects/concurrent/javabase/src/main/java/com/sk/concurrent/lock/uselock/SellTicket.java
/Users/apple/Documents/IdeaProjects/concurrent/javabase/src/main/java/com/sk/disruptor/bhz/base/LongEventMain.java
/Users/apple/Documents/IdeaProjects/concurrent/javabase/src/main/java/com/sk/lintcode/Solu1.java
/Users/apple/Documents/IdeaProjects/concurrent/javabase/src/main/java/com/sk/disruptor/aswill/LongEventHandler.java
/Users/apple/Documents/IdeaProjects/concurrent/javabase/src/main/java/com/sk/io/bio/Client.java
/Users/apple/Documents/IdeaProjects/concurrent/javabase/src/main/java/com/sk/concurrent/multi02/wait_notify/ListAdd2.java
/Users/apple/Documents/IdeaProjects/concurrent/javabase/src/main/java/com/sk/concurrent/blockingqueue/Consumer.java
/Users/apple/Documents/IdeaProjects/concurrent/javabase/src/main/java/com/sk/disruptor/bhz/generate2/Main.java
/Users/apple/Documents/IdeaProjects/concurrent/javabase/src/main/java/com/sk/disruptor/bhz/multi/Consumer.java
/Users/apple/Documents/IdeaProjects/concurrent/javabase/src/main/java/com/sk/jvm/HeapNewGenParams.java
/Users/apple/Documents/IdeaProjects/concurrent/javabase/src/main/java/com/sk/basic/aboutstatic/OutClassTest.java
/Users/apple/Documents/IdeaProjects/concurrent/javabase/src/main/java/com/sk/disruptor/bhz/generate2/Handler4.java
/Users/apple/Documents/IdeaProjects/concurrent/javabase/src/main/java/com/sk/io/bio/ServerHandler.java
/Users/apple/Documents/IdeaProjects/concurrent/javabase/src/main/java/com/sk/io/bio2/Server.java
/Users/apple/Documents/IdeaProjects/concurrent/javabase/src/main/java/com/sk/io/NioBufferWrite.java
/Users/apple/Documents/IdeaProjects/concurrent/javabase/src/main/java/com/sk/io/nio/Client.java
/Users/apple/Documents/IdeaProjects/concurrent/javabase/src/main/java/com/sk/disruptor/aswill/Translator.java
/Users/apple/Documents/IdeaProjects/concurrent/javabase/src/main/java/com/sk/disruptor/bhz/generate2/TradePublisher.java
/Users/apple/Documents/IdeaProjects/concurrent/javabase/src/main/java/com/sk/concurrent/blockingqueue/Producer.java
/Users/apple/Documents/IdeaProjects/concurrent/javabase/src/main/java/com/sk/disruptor/bhz/generate2/Handler3.java
/Users/apple/Documents/IdeaProjects/concurrent/javabase/src/main/java/com/sk/io/bio2/ServerHandler.java
/Users/apple/Documents/IdeaProjects/concurrent/javabase/src/main/java/com/sk/lintcode/stack/Solu4.java
/Users/apple/Documents/IdeaProjects/concurrent/javabase/src/main/java/com/sk/disruptor/bhz/multi/Producer.java
/Users/apple/Documents/IdeaProjects/concurrent/javabase/src/main/java/com/sk/concurrent/future/connection/ConnectionPool.java
/Users/apple/Documents/IdeaProjects/concurrent/javabase/src/main/java/com/sk/io/aio/AIOClient.java
/Users/apple/Documents/IdeaProjects/concurrent/javabase/src/main/java/com/sk/io/reactor/AcceptEventHandler.java
/Users/apple/Documents/IdeaProjects/concurrent/javabase/src/main/java/com/sk/concurrent/multi01/VolatileNoAtomic.java
/Users/apple/Documents/IdeaProjects/concurrent/javabase/src/main/java/com/sk/lintcode/sort/Solu5.java
/Users/apple/Documents/IdeaProjects/concurrent/javabase/src/main/java/com/sk/lintcode/Solu2.java
/Users/apple/Documents/IdeaProjects/concurrent/javabase/src/main/java/com/sk/concurrent/multi01/DeadLock.java
/Users/apple/Documents/IdeaProjects/concurrent/javabase/src/main/java/com/sk/concurrent/lock/TestHoldCount.java
/Users/apple/Documents/IdeaProjects/concurrent/javabase/src/main/java/com/sk/concurrent/multi01/ModifyLock.java
/Users/apple/Documents/IdeaProjects/concurrent/javabase/src/main/java/com/sk/jvm/HeapTLabParams.java
/Users/apple/Documents/IdeaProjects/concurrent/javabase/src/main/java/com/sk/disruptor/bhz/generate1/Main2.java
/Users/apple/Documents/IdeaProjects/concurrent/javabase/src/main/java/com/sk/concurrent/multi01/SyncDubbo2.java
