com/sk/sharding/enums/ArithmeticEnum.class
com/sk/sharding/utils/TableNameUtil.class
com/sk/sharding/dao/CreditRequestDao.class
com/sk/sharding/annotation/Table.class
com/sk/sharding/interceptor/TableInterceptor.class
com/sk/sharding/po/CreditRequest.class
com/sk/sharding/po/Entity.class
com/sk/sharding/TestCase.class
