/Users/apple/Documents/IdeaProjects/concurrent/datastructure/src/main/java/com/sk/datastructure/AppAbs.java
/Users/apple/Documents/IdeaProjects/concurrent/datastructure/src/main/java/com/sk/datastructure/sort/SortUtils.java
/Users/apple/Documents/IdeaProjects/concurrent/datastructure/src/main/java/com/sk/datastructure/recursion/HanNuoTa.java
/Users/apple/Documents/IdeaProjects/concurrent/datastructure/src/main/java/com/sk/datastructure/tree/BinaryTreeApp.java
/Users/apple/Documents/IdeaProjects/concurrent/datastructure/src/main/java/com/sk/datastructure/BinarySearch.java
/Users/apple/Documents/IdeaProjects/concurrent/datastructure/src/main/java/com/sk/datastructure/stacks/StackArray.java
/Users/apple/Documents/IdeaProjects/concurrent/datastructure/src/main/java/com/sk/datastructure/twoWayLinkedList/TwoWayLinkedList.java
/Users/apple/Documents/IdeaProjects/concurrent/datastructure/src/main/java/com/sk/datastructure/recursion/TwoFindSearch.java
/Users/apple/Documents/IdeaProjects/concurrent/datastructure/src/main/java/com/sk/datastructure/App.java
/Users/apple/Documents/IdeaProjects/concurrent/datastructure/src/main/java/com/sk/datastructure/tree/BinNode.java
/Users/apple/Documents/IdeaProjects/concurrent/datastructure/src/main/java/com/sk/datastructure/sort/InsertSort.java
/Users/apple/Documents/IdeaProjects/concurrent/datastructure/src/main/java/com/sk/datastructure/recursion/MergeSort.java
/Users/apple/Documents/IdeaProjects/concurrent/datastructure/src/main/java/com/sk/datastructure/tree/many_tree/ManyTreeNode.java
/Users/apple/Documents/IdeaProjects/concurrent/datastructure/src/main/java/com/sk/datastructure/linkedList/CircularLinkedList.java
/Users/apple/Documents/IdeaProjects/concurrent/datastructure/src/main/java/com/sk/datastructure/sort/HeapSort.java
/Users/apple/Documents/IdeaProjects/concurrent/datastructure/src/main/java/com/sk/datastructure/sort/FastSort.java
/Users/apple/Documents/IdeaProjects/concurrent/datastructure/src/main/java/com/sk/datastructure/arrays/TestApp.java
/Users/apple/Documents/IdeaProjects/concurrent/datastructure/src/main/java/com/sk/datastructure/queue/MyQueue.java
/Users/apple/Documents/IdeaProjects/concurrent/datastructure/src/main/java/com/sk/datastructure/linkedList/Node.java
/Users/apple/Documents/IdeaProjects/concurrent/datastructure/src/main/java/com/sk/datastructure/singleLinkedList/SingleLinkedList.java
/Users/apple/Documents/IdeaProjects/concurrent/datastructure/src/main/java/com/sk/datastructure/linkedList/LoopSingleLinkedList.java
/Users/apple/Documents/IdeaProjects/concurrent/datastructure/src/main/java/com/sk/datastructure/sort/MergeSort.java
/Users/apple/Documents/IdeaProjects/concurrent/datastructure/src/main/java/com/sk/datastructure/queue/PriorityQue.java
/Users/apple/Documents/IdeaProjects/concurrent/datastructure/src/main/java/com/sk/datastructure/sort/FastSort3.java
/Users/apple/Documents/IdeaProjects/concurrent/datastructure/src/main/java/com/sk/datastructure/recursion/_99_mutil.java
/Users/apple/Documents/IdeaProjects/concurrent/datastructure/src/main/java/com/sk/datastructure/stacks/StackSingleLink.java
/Users/apple/Documents/IdeaProjects/concurrent/datastructure/src/main/java/com/sk/datastructure/sort/FindKMax.java
/Users/apple/Documents/IdeaProjects/concurrent/datastructure/src/main/java/com/sk/datastructure/recursion/Factorial.java
/Users/apple/Documents/IdeaProjects/concurrent/datastructure/src/main/java/com/sk/datastructure/linkedList/LinkedListApp.java
/Users/apple/Documents/IdeaProjects/concurrent/datastructure/src/main/java/com/sk/datastructure/arrays/ErWeiArray.java
/Users/apple/Documents/IdeaProjects/concurrent/datastructure/src/main/java/com/sk/datastructure/arrays/ArrayList.java
/Users/apple/Documents/IdeaProjects/concurrent/datastructure/src/main/java/com/sk/datastructure/mult_tree/Node.java
/Users/apple/Documents/IdeaProjects/concurrent/datastructure/src/main/java/com/sk/datastructure/sort/FastSort2.java
/Users/apple/Documents/IdeaProjects/concurrent/datastructure/src/main/java/com/sk/datastructure/tree/many_tree/TreeNode.java
/Users/apple/Documents/IdeaProjects/concurrent/datastructure/src/main/java/com/sk/datastructure/twoWayLinkedList/DoubleLinkedList.java
/Users/apple/Documents/IdeaProjects/concurrent/datastructure/src/main/java/com/sk/datastructure/doubleLinkedList/DoublePointLinkedList.java
/Users/apple/Documents/IdeaProjects/concurrent/datastructure/src/main/java/com/sk/datastructure/tree/many_tree/ManyNodeTree.java
/Users/apple/Documents/IdeaProjects/concurrent/datastructure/src/main/java/com/sk/datastructure/mult_tree/MultTreeTest.java
/Users/apple/Documents/IdeaProjects/concurrent/datastructure/src/main/java/com/sk/datastructure/recursion/Combination.java
/Users/apple/Documents/IdeaProjects/concurrent/datastructure/src/main/java/com/sk/datastructure/mult_tree/TreeUtils.java
/Users/apple/Documents/IdeaProjects/concurrent/datastructure/src/main/java/com/sk/datastructure/doubleLinkedList/QueueLinkedList.java
